{
  "projectList" : [ {
    "id" : "07764a73-15e5-4923-b3d6-e6f85a0e4ebd",
    "userId" : "c95d4eac-a09e-48ef-b6e9-ae34624efe1f",
    "name" : "name",
    "description" : "description",
    "dateBegin" : 1577826000000,
    "dateEnd" : 1580590800000,
    "status" : "PLANNED"
  } ]
}